<svg width="46" height="46" viewBox="0 0 46 46" fill="none" xmlns="http://www.w3.org/2000/svg">
<g filter="url(#filter0_d_74_289)">
<rect x="5" y="5" width="32" height="32" rx="5" fill="#FF4500"/>
<path d="M23.2386 11C21.6666 11 20.4966 12.2803 20.4966 13.742V16.2733C18.4281 16.382 16.5531 16.9295 15.0358 17.7965C14.4553 17.237 13.6821 17 12.9261 17C12.1086 17 11.2768 17.2662 10.7001 17.9142V17.9375L10.6761 17.9608C10.1226 18.6523 9.89683 19.5755 10.0438 20.492C10.12 20.949 10.2905 21.3852 10.5447 21.7726C10.7988 22.16 11.1309 22.4902 11.5198 22.742C11.5138 22.8275 11.4966 22.9122 11.4966 23C11.4966 24.9537 12.6771 26.6652 14.4501 27.8517C16.2216 29.0375 18.6126 29.75 21.2466 29.75C23.8806 29.75 26.2716 29.0375 28.0438 27.8517C29.8153 26.6652 30.9966 24.9537 30.9966 23C30.9966 22.9122 30.9793 22.8275 30.9733 22.742C31.3622 22.4902 31.6944 22.16 31.9485 21.7726C32.2026 21.3852 32.3732 20.949 32.4493 20.492C32.5963 19.5755 32.3706 18.6523 31.8171 17.9608L31.7931 17.9375C31.2163 17.2902 30.3846 17 29.5671 17C28.8111 17 28.0371 17.237 27.4573 17.7972C25.9401 16.9295 24.0651 16.382 21.9966 16.2733V13.742C21.9966 13.007 22.4158 12.5 23.2386 12.5C23.6286 12.5 24.1116 12.6845 24.8563 12.9455C25.4886 13.1682 26.3091 13.4142 27.3636 13.484C27.6186 14.2175 28.3071 14.75 29.1216 14.75C30.1528 14.75 30.9966 13.9062 30.9966 12.875C30.9966 11.8438 30.1528 11 29.1216 11C28.4128 11 27.8001 11.4013 27.4806 11.9848C26.5813 11.9323 25.9311 11.7447 25.3483 11.5392C24.6711 11.3015 24.0471 11 23.2386 11ZM21.2466 17.75C23.6106 17.75 25.7203 18.4002 27.2001 19.391C28.6791 20.381 29.4966 21.6523 29.4966 23C29.4966 24.3477 28.6791 25.619 27.1993 26.6097C25.7203 27.5998 23.6106 28.25 21.2466 28.25C18.8826 28.25 16.7728 27.5998 15.2931 26.609C13.8141 25.619 12.9966 24.3477 12.9966 23C12.9966 21.6523 13.8141 20.381 15.2938 19.3903C16.7721 18.4002 18.8826 17.75 21.2466 17.75ZM12.9261 18.5C13.2111 18.5 13.4916 18.5705 13.7233 18.6875C12.9088 19.37 12.2758 20.1815 11.8948 21.0785C11.7093 20.8396 11.5882 20.5571 11.5431 20.258C11.4613 19.754 11.6076 19.2327 11.8483 18.9215C11.8513 18.9163 11.8453 18.9042 11.8483 18.899C12.0763 18.6582 12.4813 18.5 12.9261 18.5ZM29.5671 18.5C30.0118 18.5 30.4168 18.6575 30.6448 18.8983C30.6478 18.9012 30.6418 18.9193 30.6448 18.9215C30.8848 19.2327 31.0318 19.754 30.9501 20.258C30.9048 20.557 30.7835 20.8393 30.5976 21.0778C30.2173 20.1815 29.5851 19.37 28.7698 18.6875C29.0016 18.5705 29.2828 18.5 29.5671 18.5ZM17.4966 20C17.0988 20 16.7172 20.158 16.4359 20.4393C16.1546 20.7206 15.9966 21.1022 15.9966 21.5C15.9966 21.8978 16.1546 22.2794 16.4359 22.5607C16.7172 22.842 17.0988 23 17.4966 23C17.8944 23 18.2759 22.842 18.5572 22.5607C18.8385 22.2794 18.9966 21.8978 18.9966 21.5C18.9966 21.1022 18.8385 20.7206 18.5572 20.4393C18.2759 20.158 17.8944 20 17.4966 20ZM24.9966 20C24.5988 20 24.2172 20.158 23.9359 20.4393C23.6546 20.7206 23.4966 21.1022 23.4966 21.5C23.4966 21.8978 23.6546 22.2794 23.9359 22.5607C24.2172 22.842 24.5988 23 24.9966 23C25.3944 23 25.7759 22.842 26.0572 22.5607C26.3385 22.2794 26.4966 21.8978 26.4966 21.5C26.4966 21.1022 26.3385 20.7206 26.0572 20.4393C25.7759 20.158 25.3944 20 24.9966 20ZM25.1841 24.1483C24.3231 24.9485 22.8756 25.4608 21.2466 25.4608C19.6176 25.4608 18.1701 24.9425 17.3091 24.242C17.7891 25.5433 19.3303 26.75 21.2466 26.75C23.1628 26.75 24.7041 25.5485 25.1841 24.1483Z" fill="white"/>
</g>
<defs>
<filter id="filter0_d_74_289" x="0" y="0" width="46" height="46" filterUnits="userSpaceOnUse" color-interpolation-filters="sRGB">
<feFlood flood-opacity="0" result="BackgroundImageFix"/>
<feColorMatrix in="SourceAlpha" type="matrix" values="0 0 0 0 0 0 0 0 0 0 0 0 0 0 0 0 0 0 127 0" result="hardAlpha"/>
<feOffset dx="2" dy="2"/>
<feGaussianBlur stdDeviation="3.5"/>
<feColorMatrix type="matrix" values="0 0 0 0 0.109375 0 0 0 0 0.20191 0 0 0 0 0.3125 0 0 0 0.2 0"/>
<feBlend mode="normal" in2="BackgroundImageFix" result="effect1_dropShadow_74_289"/>
<feBlend mode="normal" in="SourceGraphic" in2="effect1_dropShadow_74_289" result="shape"/>
</filter>
</defs>
</svg>
