<svg width="32" height="32" viewBox="0 0 32 32" fill="none" xmlns="http://www.w3.org/2000/svg">
<rect width="32" height="32" rx="5" fill="#2CA3DB"/>
<path d="M12.65 18.2003L12.3242 22.7821C12.7903 22.7821 12.9921 22.5819 13.2342 22.3415L15.4193 20.2533L19.9469 23.569C20.7773 24.0318 21.3624 23.7881 21.5864 22.8051L24.5583 8.87904L24.5592 8.87822C24.8226 7.65071 24.1153 7.1707 23.3062 7.47183L5.83707 14.16C4.64484 14.6228 4.66289 15.2874 5.6344 15.5885L10.1006 16.9777L20.4746 10.4865C20.9628 10.1632 21.4067 10.3421 21.0415 10.6653L12.65 18.2003Z" fill="white"/>
<rect width="32" height="32" rx="5" stroke="white"/>
</svg>
