<svg width="33" height="32" viewBox="0 0 33 32" fill="none" xmlns="http://www.w3.org/2000/svg">
<path d="M32.473 13.5414C32.473 6.25045 25.2508 0.318843 16.3728 0.318843C7.49603 0.318843 0.272949 6.25045 0.272949 13.5414C0.272949 20.0777 6.00067 25.5518 13.7376 26.5869C14.262 26.7012 14.9756 26.9367 15.1561 27.3903C15.3185 27.8023 15.2623 28.4476 15.208 28.8636C15.208 28.8636 15.0191 30.0134 14.9784 30.2583C14.9083 30.6703 14.6549 31.8694 16.3728 31.1366C18.0913 30.4039 25.6449 25.6114 29.0227 21.6767C31.356 19.0873 32.473 16.4594 32.473 13.5414Z" fill="white"/>
<path d="M13.1019 10.0069H11.9726C11.7994 10.0069 11.6587 10.1489 11.6587 10.3233V17.4148C11.6587 17.5895 11.7994 17.7311 11.9726 17.7311H13.1019C13.275 17.7311 13.4155 17.5895 13.4155 17.4148V10.3233C13.4155 10.1489 13.275 10.0069 13.1019 10.0069Z" fill="#0B101D"/>
<path d="M20.8749 10.0069H19.7455C19.5724 10.0069 19.432 10.1489 19.432 10.3233V14.5364L16.2172 10.1476C16.1577 10.0575 16.0613 10.0128 15.9561 10.0069H14.8271C14.6539 10.0069 14.5132 10.1489 14.5132 10.3233V17.4148C14.5132 17.5895 14.6539 17.7311 14.8271 17.7311H15.9561C16.1295 17.7311 16.27 17.5895 16.27 17.4148V13.2029L19.4888 17.5973C19.5466 17.6801 19.6447 17.7311 19.7455 17.7311H20.8749C21.0483 17.7311 21.1884 17.5895 21.1884 17.4148V10.3233C21.1884 10.1489 21.0483 10.0069 20.8749 10.0069Z" fill="#0B101D"/>
<path d="M10.3796 15.9553H7.31115V10.3236C7.31115 10.1485 7.17072 10.0066 6.99788 10.0066H5.86826C5.69512 10.0066 5.55469 10.1485 5.55469 10.3236V17.4138C5.55469 17.586 5.6945 17.7311 5.86796 17.7311H10.3796C10.5528 17.7311 10.6926 17.5889 10.6926 17.4138V16.2723C10.6926 16.0973 10.5528 15.9553 10.3796 15.9553Z" fill="#0B101D"/>
<path d="M27.1111 11.7824C27.2842 11.7824 27.424 11.6408 27.424 11.4655V10.3239C27.424 10.1489 27.2842 10.0066 27.1111 10.0066H22.5997C22.4265 10.0066 22.2861 10.1515 22.2861 10.3236V17.4142C22.2861 17.5858 22.4261 17.7311 22.5991 17.7311H27.1111C27.2842 17.7311 27.424 17.5889 27.424 17.4142V16.2723C27.424 16.0976 27.2842 15.9553 27.1111 15.9553H24.0429V14.7566H27.1111C27.2842 14.7566 27.424 14.6147 27.424 14.4397V13.2981C27.424 13.1231 27.2842 12.9808 27.1111 12.9808H24.0429V11.7824H27.1111Z" fill="#0B101D"/>
</svg>

