<svg width="62" height="62" viewBox="0 0 62 62" fill="none" xmlns="http://www.w3.org/2000/svg">
<rect width="62" height="62" rx="10" fill="url(#paint0_linear_25_1694)"/>
<path opacity="0.5" d="M18.2145 22.9709C16.2473 22.9709 14.647 24.5712 14.647 26.5384C14.647 28.5056 16.2473 30.1058 18.2145 30.1058C20.1816 30.1058 21.7819 28.5056 21.7819 26.5384C21.7819 24.5712 20.1816 22.9709 18.2145 22.9709ZM44.376 22.9709C42.4088 22.9709 40.8085 24.5712 40.8085 26.5384C40.8085 28.5056 42.4088 30.1058 44.376 30.1058C46.3432 30.1058 47.9435 28.5056 47.9435 26.5384C47.9435 24.5712 46.3432 22.9709 44.376 22.9709Z" fill="white"/>
<path d="M18.6811 18.6822C22.0511 15.3133 26.5314 13.3783 31.295 13.3783C34.887 13.3783 38.3166 14.5151 41.2317 16.4784L40.8245 16.4583C40.1626 16.4119 39.6099 16.9333 39.5797 17.5883C39.5471 18.2444 40.0535 18.8018 40.7084 18.8343L44.6916 19.0294C45.0795 18.9447 45.3724 18.9837 45.6926 18.5661C45.9295 18.256 46.0015 17.8496 45.8831 17.4779L44.5568 13.3438C44.3548 12.719 43.6859 12.3741 43.0611 12.575C42.434 12.7759 42.0903 13.4448 42.29 14.0707L42.3957 14.3994C39.1266 12.2421 35.3018 11 31.295 11C25.895 11 20.8202 13.1823 16.9996 17.0007C16.5351 17.4651 16.5351 18.2177 16.9996 18.6822C17.464 19.1467 18.2165 19.1468 18.6811 18.6822ZM25.3492 38.43V37.2408C25.3492 33.3063 22.1487 30.1058 18.2142 30.1058C14.2798 30.1058 11 33.3063 11 37.2408V38.43C11 39.0872 11.5319 39.6191 12.1892 39.6191H24.16C24.8173 39.6191 25.3492 39.0872 25.3492 38.43ZM44.3758 30.1058C40.4413 30.1058 37.2408 33.3063 37.2408 37.2408V38.43C37.2408 39.0872 37.7727 39.6191 38.43 39.6191H50.4009C51.0581 39.6191 51.59 39.0872 51.59 38.43V37.2408C51.59 33.3063 48.3102 30.1058 44.3758 30.1058ZM43.9089 43.9871C40.5389 47.356 36.0586 49.2117 31.295 49.2117C27.703 49.2117 24.2734 48.1542 21.3583 46.1909L21.7655 46.211C22.4413 46.2435 22.9802 45.7371 23.0104 45.081C23.0429 44.4249 22.5365 43.8674 21.8816 43.8349L17.8984 43.6398C17.5105 43.6259 17.1342 43.7943 16.8974 44.1032C16.6605 44.4133 16.5885 44.8197 16.7069 45.1914L18.0332 49.3255C18.2313 49.9397 18.8908 50.2967 19.5289 50.0943C20.156 49.8934 20.4997 49.2244 20.3 48.5985L20.1944 48.2699C23.4634 50.4272 27.2882 51.59 31.295 51.59C36.695 51.59 41.7698 49.4869 45.5905 45.6686C46.0549 45.2041 46.0549 44.4515 45.5905 43.9871C45.126 43.5226 44.3735 43.5225 43.9089 43.9871Z" fill="white"/>
<defs>
<linearGradient id="paint0_linear_25_1694" x1="6.82692e-08" y1="31" x2="61.0263" y2="28.602" gradientUnits="userSpaceOnUse">
<stop stop-color="#3772FF"/>
<stop offset="1" stop-color="#6089ED"/>
</linearGradient>
</defs>
</svg>
